module M =
    var x = 0;
    class C = struct var a = 0 end;
    var y = new array[3] of new C;
    var i = 0;
    proc initialize() {
        x = 0;
        while not (i == 3) {
            y[i].a = i;
            i = (i + 1)
        }
    }
end;
import M;
var z = new C;
var k = 10;
initialize();
z.a = (x + y[2].a);
print (z.a + k)